<svg width="40" height="40" viewBox="0 0 40 40" fill="none" xmlns="http://www.w3.org/2000/svg">
<circle cx="20" cy="20" r="19.5" fill="white" stroke="#E6E6E6"/>
<path fill-rule="evenodd" clip-rule="evenodd" d="M20 11C23.3137 11 26 13.6862 26 16.9999C26 18.9131 26 20.8341 26 22C26 25 28 26 28 26L12 26C12 26 14 25 14 22C14 20.8341 14 18.9131 14 17C14 13.6862 16.6863 11 20 11V11Z" stroke="#7F5CE0" stroke-linejoin="round"/>
<path d="M18 26C18 27.1046 18.8954 28 20 28C21.1046 28 22 27.1046 22 26" stroke="#7F5CE0"/>
<circle cx="27" cy="13" r="3" fill="#7F5CE0"/>
</svg>
