<svg width="4" height="5" viewBox="0 0 4 5" fill="none" xmlns="http://www.w3.org/2000/svg">
<path d="M0.179688 2.01562C0.179688 1.47396 0.351562 1.03906 0.695312 0.710938C1.03906 0.382812 1.48177 0.21875 2.02344 0.21875C2.58594 0.21875 3.03385 0.380208 3.36719 0.703125C3.70573 1.02604 3.88021 1.45052 3.89062 1.97656V2.3125C3.89062 2.84896 3.71875 3.28125 3.375 3.60938C3.03646 3.93229 2.59115 4.09375 2.03906 4.09375C1.49219 4.09375 1.04427 3.93229 0.695312 3.60938C0.351562 3.28646 0.179688 2.84635 0.179688 2.28906V2.01562Z" fill="#222222"/>
</svg>
