<svg width="18" height="12" viewBox="0 0 18 12" fill="none" xmlns="http://www.w3.org/2000/svg">
<path d="M17 6C17 6 14.6 11 9 11C3.4 11 1 6 1 6C1 6 3.4 1 9 1C14.6 1 17 6 17 6Z" stroke="#989898" stroke-linecap="round" stroke-linejoin="round"/>
<circle cx="9" cy="6" r="2.5" stroke="#989898" stroke-linecap="round" stroke-linejoin="round"/>
</svg>
