<svg width="14" height="12" viewBox="0 0 14 12" fill="none" xmlns="http://www.w3.org/2000/svg">
<path d="M7 11L6.13 10.2807C3.04 7.73569 1 6.05722 1 3.99728C1 2.3188 2.452 1 4.3 1C5.344 1 6.346 1.44142 7 2.13896C7.654 1.44142 8.656 1 9.7 1C11.548 1 13 2.3188 13 3.99728C13 6.05722 10.96 7.73569 7.87 10.2861L7 11Z" stroke="white" stroke-linejoin="round"/>
</svg>
