<svg width="73" height="73" viewBox="0 0 73 73" fill="none" xmlns="http://www.w3.org/2000/svg">
<path d="M32.772 65H62.228C63.7612 65 65 63.7616 65 62.2288V32.7712C65 31.2384 63.7612 30 62.228 30H32.772C31.2388 30 30 31.2384 30 32.7712V62.2187C30 63.7514 31.2489 65 32.772 65Z" fill="#E6E6E6"/>
<path d="M30 23H68C70.2091 23 72 24.7909 72 27V68C72 70.2091 70.2091 72 68 72H27C24.7909 72 23 70.2091 23 68V30" stroke="#646464" stroke-width="2" stroke-linecap="round"/>
<path d="M49.983 17.7695C49.8507 17.7695 49.7185 17.7488 49.5965 17.697C49.4744 17.6453 49.3625 17.5626 49.2608 17.4695C49.0675 17.2729 48.9658 17.0143 48.9658 16.7349C48.9658 16.6005 48.9862 16.466 49.0472 16.3418C49.098 16.2177 49.1692 16.1039 49.2608 16.0108C49.3523 15.9073 49.4642 15.8349 49.5965 15.7832C49.9626 15.628 50.4203 15.7108 50.7051 16.0108C50.7967 16.1039 50.8679 16.2177 50.9188 16.3418C50.9696 16.466 51.0001 16.6005 51.0001 16.7349C51.0001 17.0143 50.8984 17.2729 50.7051 17.4695C50.5119 17.666 50.2576 17.7695 49.983 17.7695Z" fill="#646464"/>
<path d="M49.983 6.26827C50.5447 6.26827 51.0001 5.8051 51.0001 5.23374C51.0001 4.66239 50.5447 4.19922 49.983 4.19922C49.4212 4.19922 48.9658 4.66239 48.9658 5.23374C48.9658 5.8051 49.4212 6.26827 49.983 6.26827Z" fill="#646464"/>
<path d="M49.983 12.0188C50.5447 12.0188 51.0001 11.5556 51.0001 10.9842C51.0001 10.4129 50.5447 9.94971 49.983 9.94971C49.4212 9.94971 48.9658 10.4129 48.9658 10.9842C48.9658 11.5556 49.4212 12.0188 49.983 12.0188Z" fill="#646464"/>
<path d="M12.5826 2.06905C13.1443 2.06905 13.5997 1.60588 13.5997 1.03452C13.5997 0.463172 13.1443 0 12.5826 0C12.0208 0 11.5654 0.463172 11.5654 1.03452C11.5654 1.60588 12.0208 2.06905 12.5826 2.06905Z" fill="#646464"/>
<path d="M19.0406 2.06905C19.6023 2.06905 20.0577 1.60588 20.0577 1.03452C20.0577 0.463172 19.6023 0 19.0406 0C18.4788 0 18.0234 0.463172 18.0234 1.03452C18.0234 1.60588 18.4788 2.06905 19.0406 2.06905Z" fill="#646464"/>
<path d="M6.1236 2.06905C6.68535 2.06905 7.14075 1.60588 7.14075 1.03452C7.14075 0.463172 6.68535 0 6.1236 0C5.56184 0 5.10645 0.463172 5.10645 1.03452C5.10645 1.60588 5.56184 2.06905 6.1236 2.06905Z" fill="#646464"/>
<path d="M38.4175 2.06905C38.9793 2.06905 39.4347 1.60588 39.4347 1.03452C39.4347 0.463172 38.9793 0 38.4175 0C37.8558 0 37.4004 0.463172 37.4004 1.03452C37.4004 1.60588 37.8558 2.06905 38.4175 2.06905Z" fill="#646464"/>
<path d="M44.8765 2.06905C45.4383 2.06905 45.8937 1.60588 45.8937 1.03452C45.8937 0.463172 45.4383 0 44.8765 0C44.3148 0 43.8594 0.463172 43.8594 1.03452C43.8594 1.60588 44.3148 2.06905 44.8765 2.06905Z" fill="#646464"/>
<path d="M25.4996 2.06905C26.0613 2.06905 26.5167 1.60588 26.5167 1.03452C26.5167 0.463172 26.0613 0 25.4996 0C24.9378 0 24.4824 0.463172 24.4824 1.03452C24.4824 1.60588 24.9378 2.06905 25.4996 2.06905Z" fill="#646464"/>
<path d="M31.9586 2.06905C32.5203 2.06905 32.9757 1.60588 32.9757 1.03452C32.9757 0.463172 32.5203 0 31.9586 0C31.3968 0 30.9414 0.463172 30.9414 1.03452C30.9414 1.60588 31.3968 2.06905 31.9586 2.06905Z" fill="#646464"/>
<path d="M1.01715 43.853C0.457718 43.853 0 44.3186 0 44.8876C0 45.4565 0.457718 45.9221 1.01715 45.9221C1.58676 45.9221 2.04447 45.4565 2.04447 44.8876C2.04447 44.3186 1.58676 43.853 1.01715 43.853Z" fill="#646464"/>
<path d="M1.01715 7.14717C1.58676 7.14717 2.04447 6.68164 2.04447 6.11265C2.04447 5.54366 1.58676 5.07812 1.01715 5.07812C0.457718 5.07812 0 5.54366 0 6.11265C0 6.68164 0.457718 7.14717 1.01715 7.14717Z" fill="#646464"/>
<path d="M1.01715 37.3892C0.457718 37.3892 0 37.8547 0 38.4237C0 39.003 0.457718 39.4582 1.01715 39.4582C1.58676 39.4582 2.04447 39.003 2.04447 38.4237C2.04447 37.8547 1.58676 37.3892 1.01715 37.3892Z" fill="#646464"/>
<path d="M1.01715 17.9966C0.457718 17.9966 0 18.4621 0 19.0311C0 19.6001 0.457718 20.0656 1.01715 20.0656C1.58676 20.0656 2.04447 19.6001 2.04447 19.0311C2.04447 18.4621 1.58676 17.9966 1.01715 17.9966Z" fill="#646464"/>
<path d="M1.01715 11.5322C0.457718 11.5322 0 11.9874 0 12.5668C0 13.1357 0.457718 13.6013 1.01715 13.6013C1.58676 13.6013 2.04447 13.1357 2.04447 12.5668C2.04447 11.9874 1.58676 11.5322 1.01715 11.5322Z" fill="#646464"/>
<path d="M1.01715 30.9248C0.457718 30.9248 0 31.3903 0 31.9593C0 32.5283 0.457718 32.9939 1.01715 32.9939C1.58676 32.9939 2.04447 32.5283 2.04447 31.9593C2.04447 31.3903 1.58676 30.9248 1.01715 30.9248Z" fill="#646464"/>
<path d="M1.01715 24.4604C0.457718 24.4604 0 24.9156 0 25.495C0 26.064 0.457718 26.5295 1.01715 26.5295C1.58676 26.5295 2.04447 26.064 2.04447 25.495C2.04447 24.9156 1.58676 24.4604 1.01715 24.4604Z" fill="#646464"/>
<path d="M5.57379 51.0007C6.13555 51.0007 6.59094 50.5375 6.59094 49.9662C6.59094 49.3948 6.13555 48.9316 5.57379 48.9316C5.01204 48.9316 4.55664 49.3948 4.55664 49.9662C4.55664 50.5375 5.01204 51.0007 5.57379 51.0007Z" fill="#646464"/>
<path d="M11.6568 51.0007C12.2186 51.0007 12.674 50.5375 12.674 49.9662C12.674 49.3948 12.2186 48.9316 11.6568 48.9316C11.095 48.9316 10.6396 49.3948 10.6396 49.9662C10.6396 50.5375 11.095 51.0007 11.6568 51.0007Z" fill="#646464"/>
<path d="M17.7388 51.0005C17.4642 51.0005 17.2099 50.8971 17.0167 50.7005C16.8234 50.504 16.7217 50.2453 16.7217 49.966C16.7217 49.697 16.8234 49.4281 17.0167 49.2418C17.2506 48.9936 17.6066 48.8798 17.9321 48.9522C18.0033 48.9729 18.0643 48.9936 18.1253 49.0143C18.1864 49.0349 18.2474 49.0763 18.2983 49.1074C18.3593 49.1487 18.4102 49.1901 18.4508 49.2418C18.6441 49.4281 18.756 49.697 18.756 49.966C18.756 50.2453 18.6441 50.504 18.4508 50.7005C18.2677 50.8971 18.0033 51.0005 17.7388 51.0005Z" fill="#646464"/>
<path d="M40 39.5L16 15.5" stroke="#646464" stroke-width="2" stroke-miterlimit="10" stroke-linecap="round" stroke-linejoin="round"/>
<path d="M28 15.5H16V27.5" stroke="#646464" stroke-width="2" stroke-miterlimit="10" stroke-linecap="round" stroke-linejoin="round"/>
</svg>
